…
```r
sample_logbook <- sample_logbook %>% 
  mutate(sampling_date = str_c(year, month, day, sep = "/")) %>%                 # this concatenates year, month and day with a "/" in between
  mutate(sampling_time = str_c(hh, mm, sep = ":")) %>%                           # this concatenates hours and minutes  with a ":" in between
  mutate(samp_date_time = str_c(sampling_date, sampling_time, sep = " ")) %>%    # this concatenates the date and the time with a space in between
  mutate(samp_date_time = ymd_hm(samp_date_time, tz = "Canada/Central")) %>%     # this is where we turn that character string into a date-time
  mutate(sampling_date = ymd(sampling_date)) %>%                                 # we make the date alone into a date, in case we need it later
  mutate(sampling_time = hm(sampling_time))                                      # we make the time alone into a time, in case we need it later

print(sample_logbook)
```

```
## # A tibble: 108 x 11
##    sample_id site_id   day month  year    hh    mm collected_by sampling_date
##    <chr>     <chr>   <dbl> <dbl> <dbl> <dbl> <dbl> <chr>        <date>       
##  1 TR_001    site_a     21     1  2018    13    39 JS           2018-01-21   
##  2 TR_002    site_b     14     1  2018    10    32 JLR          2018-01-14   
##  3 TR_003    site_c     19     1  2018    17    24 JS           2018-01-19   
##  4 TR_004    site_d      1     1  2018    11    22 JS           2018-01-01   
##  5 TR_005    site_e     20     1  2018    14    34 TB           2018-01-20   
##  6 TR_006    site_f     19     1  2018    10    23 TB           2018-01-19   
##  7 TR_007    site_g     12     1  2018    13    32 JS           2018-01-12   
##  8 TR_008    site_h     10     1  2018    13    32 JLR          2018-01-10   
##  9 TR_009    site_i     16     1  2018    11    24 JS           2018-01-16   
## 10 TR_010    site_a     16     2  2018    12    32 TB           2018-02-16   
## # … with 98 more rows, and 2 more variables: sampling_time <Period>,
## #   samp_date_time <dttm>
```
…
Now we filter out this interval



```r
sample_logbook %>% 
  filter(!sampling_date %within% equipment_malfunction)  # the "!" implies that we want to select the OPOSITE
```

```
## # A tibble: 92 x 11
##    sample_id site_id   day month  year    hh    mm collected_by sampling_date
##    <chr>     <chr>   <dbl> <dbl> <dbl> <dbl> <dbl> <chr>        <date>       
##  1 TR_001    site_a     21     1  2018    13    39 JS           2018-01-21   
##  2 TR_002    site_b     14     1  2018    10    32 JLR          2018-01-14   
##  3 TR_003    site_c     19     1  2018    17    24 JS           2018-01-19   
##  4 TR_004    site_d      1     1  2018    11    22 JS           2018-01-01   
##  5 TR_005    site_e     20     1  2018    14    34 TB           2018-01-20   
##  6 TR_006    site_f     19     1  2018    10    23 TB           2018-01-19   
##  7 TR_007    site_g     12     1  2018    13    32 JS           2018-01-12   
##  8 TR_008    site_h     10     1  2018    13    32 JLR          2018-01-10   
##  9 TR_009    site_i     16     1  2018    11    24 JS           2018-01-16   
## 10 TR_012    site_c     11     2  2018    12    34 JS           2018-02-11   
## # … with 82 more rows, and 2 more variables: sampling_time <Period>,
## #   samp_date_time <dttm>
```
…
# Data wrangling - binding and joining tables

First thing, we want to take the 4 batches of analytical results we got from the lab and bind them into one single *results* table



```r
bind_rows(batch_1, batch_2, batch_3, batch_4)
```

```
## # A tibble: 108 x 8
##    sample_id submission_date analysis_date_t… compound_1 compound_2 compound_3
##    <chr>     <date>          <chr>                 <dbl>      <dbl>      <dbl>
##  1 TR_001    2018-01-27      30/3/2018 15:30        8.90       9.24     18.2  
##  2 TR_002    2018-01-27      30/3/2018 15:30        7.98      10.0      18.7  
##  3 TR_003    2018-01-27      30/3/2018 15:30        8.66       8.92     19.3  
##  4 TR_004    2018-01-27      30/3/2018 15:30        4.52       4.01      8.88 
##  5 TR_005    2018-01-27      30/3/2018 15:30        4.84       4.18      8.59 
##  6 TR_006    2018-01-27      30/3/2018 15:30        4.45       3.69      8.97 
##  7 TR_007    2018-01-27      30/3/2018 15:30        1.54       2.18      0.217
##  8 TR_008    2018-01-27      30/3/2018 15:30        1.65       2.02      0.216
##  9 TR_009    2018-01-27      30/3/2018 15:30        1.59       2.08      0.218
## 10 TR_010    2018-02-27      30/3/2018 15:30        7.83      13.4      18.3  
## # … with 98 more rows, and 2 more variables: compound_4 <dbl>, compound_5 <dbl>
```

if you want to keep track of which file each data point came from, you can tell `bind_rows()` to create a new column with `.id = "comun_name`.

If you provide the dataframes as a list, it will use that info to populate that column. Make sure to use `tibble::lst()` instead of `base::list()` to ensure that the names of the dataframes are stored in the list


```r
results <- bind_rows(lst(batch_1, batch_2, batch_3, batch_4), 
                     .id = "batch")

print(results)
```

```
## # A tibble: 108 x 9
##    batch sample_id submission_date analysis_date_t… compound_1 compound_2
##    <chr> <chr>     <date>          <chr>                 <dbl>      <dbl>
##  1 batc… TR_001    2018-01-27      30/3/2018 15:30        8.90       9.24
##  2 batc… TR_002    2018-01-27      30/3/2018 15:30        7.98      10.0 
##  3 batc… TR_003    2018-01-27      30/3/2018 15:30        8.66       8.92
##  4 batc… TR_004    2018-01-27      30/3/2018 15:30        4.52       4.01
##  5 batc… TR_005    2018-01-27      30/3/2018 15:30        4.84       4.18
##  6 batc… TR_006    2018-01-27      30/3/2018 15:30        4.45       3.69
##  7 batc… TR_007    2018-01-27      30/3/2018 15:30        1.54       2.18
##  8 batc… TR_008    2018-01-27      30/3/2018 15:30        1.65       2.02
##  9 batc… TR_009    2018-01-27      30/3/2018 15:30        1.59       2.08
## 10 batc… TR_010    2018-02-27      30/3/2018 15:30        7.83      13.4 
## # … with 98 more rows, and 3 more variables: compound_3 <dbl>,
## #   compound_4 <dbl>, compound_5 <dbl>
```

Now that we have all the chemical data in one single onject, lets put **Sites**, **Sample logbook**, and **Results** all toguether. 



```r
combined_data <- left_join(sample_logbook, sites, by = "site_id") %>% 
  left_join(results, by = "sample_id")
  
print(combined_data)
```

```
## # A tibble: 108 x 23
##    sample_id site_id   day month  year    hh    mm collected_by sampling_date
##    <chr>     <chr>   <dbl> <dbl> <dbl> <dbl> <dbl> <chr>        <date>       
##  1 TR_001    site_a     21     1  2018    13    39 JS           2018-01-21   
##  2 TR_002    site_b     14     1  2018    10    32 JLR          2018-01-14   
##  3 TR_003    site_c     19     1  2018    17    24 JS           2018-01-19   
##  4 TR_004    site_d      1     1  2018    11    22 JS           2018-01-01   
##  5 TR_005    site_e     20     1  2018    14    34 TB           2018-01-20   
##  6 TR_006    site_f     19     1  2018    10    23 TB           2018-01-19   
##  7 TR_007    site_g     12     1  2018    13    32 JS           2018-01-12   
##  8 TR_008    site_h     10     1  2018    13    32 JLR          2018-01-10   
##  9 TR_009    site_i     16     1  2018    11    24 JS           2018-01-16   
## 10 TR_010    site_a     16     2  2018    12    32 TB           2018-02-16   
## # … with 98 more rows, and 14 more variables: sampling_time <Period>,
## #   samp_date_time <dttm>, altitude <dbl>, latitude <dbl>, longitude <dbl>,
## #   treatment <chr>, batch <chr>, submission_date <date>,
## #   analysis_date_time <chr>, compound_1 <dbl>, compound_2 <dbl>,
## #   compound_3 <dbl>, compound_4 <dbl>, compound_5 <dbl>
```


```r
combined_data_long <- combined_data %>% 
 pivot_longer(cols = c(compound_1, compound_2, compound_3, compound_4, compound_5), 
               names_to = "compound", 
               values_to = "concentration") %>% 
  mutate(treatment = factor(treatment, levels = c("Low", "Medium", "High")))

print(combined_data_long)
```

```
## # A tibble: 540 x 20
##    sample_id site_id   day month  year    hh    mm collected_by sampling_date
##    <chr>     <chr>   <dbl> <dbl> <dbl> <dbl> <dbl> <chr>        <date>       
##  1 TR_001    site_a     21     1  2018    13    39 JS           2018-01-21   
##  2 TR_001    site_a     21     1  2018    13    39 JS           2018-01-21   
##  3 TR_001    site_a     21     1  2018    13    39 JS           2018-01-21   
##  4 TR_001    site_a     21     1  2018    13    39 JS           2018-01-21   
##  5 TR_001    site_a     21     1  2018    13    39 JS           2018-01-21   
##  6 TR_002    site_b     14     1  2018    10    32 JLR          2018-01-14   
##  7 TR_002    site_b     14     1  2018    10    32 JLR          2018-01-14   
##  8 TR_002    site_b     14     1  2018    10    32 JLR          2018-01-14   
##  9 TR_002    site_b     14     1  2018    10    32 JLR          2018-01-14   
## 10 TR_002    site_b     14     1  2018    10    32 JLR          2018-01-14   
## # … with 530 more rows, and 11 more variables: sampling_time <Period>,
## #   samp_date_time <dttm>, altitude <dbl>, latitude <dbl>, longitude <dbl>,
## #   treatment <fct>, batch <chr>, submission_date <date>,
## #   analysis_date_time <chr>, compound <chr>, concentration <dbl>
```
…
